[
  {
    "type": "declaration",
    "named": true,
    "fields": {
      "type": {
        "multiple": false,
        "required": true,
        "types": [
          {
            "type": "boolean_type",
            "named": true
          },
          {
            "type": "character_type",
            "named": true
          },
          {
            "type": "floating_point_type",
            "named": true
          },
          {
            "type": "integral_type",
            "named": true
          },
          {
            "type": "void_type",
            "named": true
          }
        ]
      }
    },
    "children": {
      "multiple": true,
      "required": true,
      "types": [
        {
          "type": "export_modifier",
          "named": true
        },
        {
          "type": "identifier",
          "named": true
        },
        {
          "type": "type_qualifier",
          "named": true
        }
      ]
    }
  },
  {
    "type": "sequence_type",
    "named": true,
    "fields": {},
    "children": {
      "multiple": false,
      "required": true,
      "types": [
        {
          "type": "boolean_type",
          "named": true
        },
        {
          "type": "character_type",
          "named": true
        },
        {
          "type": "floating_point_type",
          "named": true
        },
        {
          "type": "integral_type",
          "named": true
        },
        {
          "type": "sequence_type",
          "named": true
        },
        {
          "type": "void_type",
          "named": true
        }
      ]
    }
  },
  {
    "type": "source",
    "named": true,
    "fields": {},
    "children": {
      "multiple": true,
      "required": false,
      "types": [
        {
          "type": "boolean_type",
          "named": true
        },
        {
          "type": "character_type",
          "named": true
        },
        {
          "type": "declaration",
          "named": true
        },
        {
          "type": "floating_point_type",
          "named": true
        },
        {
          "type": "integral_type",
          "named": true
        },
        {
          "type": "void_type",
          "named": true
        }
      ]
    }
  },
  {
    "type": "type_qualifier",
    "named": true,
    "fields": {}
  },
  {
    "type": ";",
    "named": false
  },
  {
    "type": "[",
    "named": false
  },
  {
    "type": "]",
    "named": false
  },
  {
    "type": "angry_comment",
    "named": true
  },
  {
    "type": "block_comment",
    "named": true
  },
  {
    "type": "boolean_type",
    "named": true
  },
  {
    "type": "character_type",
    "named": true
  },
  {
    "type": "const",
    "named": false
  },
  {
    "type": "export_modifier",
    "named": true
  },
  {
    "type": "floating_point_type",
    "named": true
  },
  {
    "type": "identifier",
    "named": true
  },
  {
    "type": "integral_type",
    "named": true
  },
  {
    "type": "line_comment",
    "named": true
  },
  {
    "type": "static",
    "named": false
  },
  {
    "type": "void_type",
    "named": true
  },
  {
    "type": "{",
    "named": false
  },
  {
    "type": "}",
    "named": false
  }
]